{
  "count": 1154,
  "next": "https://pokeapi.co/api/v2/pokemon/?offset=20&limit=20",
  "previous": null,
  "results": [
    { "name": "bulbasaur", "url": "https://pokeapi.co/api/v2/pokemon/1/" },
    { "name": "venusaur", "url": "https://pokeapi.co/api/v2/pokemon/3/" },
    { "name": "rattata", "url": "https://pokeapi.co/api/v2/pokemon/19/" }
  ]
}
